<?xml version="1.0" encoding="UTF-8"?>
<svg width="60px" height="60px" viewBox="0 0 60 60" version="1.1" xmlns="http://www.w3.org/2000/svg" xmlns:xlink="http://www.w3.org/1999/xlink">
    <!-- Generator: Sketch 57.1 (83088) - https://sketch.com -->
    <title>Group 20</title>
    <desc>Created with Sketch.</desc>
    <g id="prototype" stroke="none" stroke-width="1" fill="none" fill-rule="evenodd">
        <g id="Group-20">
            <rect id="Rectangle-Copy-15" fill="#47A3F3" x="0" y="0" width="60" height="60" rx="30"></rect>
            <g id="download" transform="translate(13.000000, 14.000000)" fill="#FFFFFF" fill-rule="nonzero">
                <path d="M6.80588942,16.9200721 C3.07391827,16.9200721 0.0450721154,19.9489183 0.0450721154,23.6808894 C0.0450721154,27.4128606 3.07391827,30.4417067 6.80588942,30.4417067 C10.5378606,30.4417067 13.5667067,27.4128606 13.5667067,23.6808894 C13.5667067,19.9579327 10.5378606,16.9200721 6.80588942,16.9200721 Z M6.80588942,27.0612981 C4.93990385,27.0612981 3.42548077,25.546875 3.42548077,23.6808894 C3.42548077,21.8149038 4.93990385,20.3004808 6.80588942,20.3004808 C8.671875,20.3004808 10.1862981,21.8149038 10.1862981,23.6808894 C10.1862981,25.546875 8.671875,27.0612981 6.80588942,27.0612981 Z" id="Shape"></path>
                <path d="M27.0883413,16.9200721 C23.3563702,16.9200721 20.327524,19.9489183 20.327524,23.6808894 C20.327524,27.4128606 23.3563702,30.4417067 27.0883413,30.4417067 C30.8203125,30.4417067 33.8491587,27.4128606 33.8491587,23.6808894 C33.8491587,19.9579327 30.8203125,16.9200721 27.0883413,16.9200721 Z M27.0883413,27.0612981 C25.2223558,27.0612981 23.7079327,25.546875 23.7079327,23.6808894 C23.7079327,21.8149038 25.2223558,20.3004808 27.0883413,20.3004808 C28.9543269,20.3004808 30.46875,21.8149038 30.46875,23.6808894 C30.46875,25.546875 28.9543269,27.0612981 27.0883413,27.0612981 Z" id="Shape"></path>
                <path d="M12.7554087,11.6736779 L14.9909856,9.43810096 C16.5324519,11.2229567 19.6334135,13.5486779 25.3936298,13.5486779 C26.3311298,13.5486779 27.0883413,12.7914663 27.0883413,11.8539663 C27.0883413,10.9164663 26.3311298,10.1592548 25.3936298,10.1592548 C18.6237981,10.1592548 16.8840144,6.30108173 16.8209135,6.15685096 C16.6135817,5.625 16.1448317,5.24639423 15.5949519,5.12920673 C15.0360577,5.01201923 14.4591346,5.18329327 14.0625,5.58894231 L8.98737981,10.6640625 C8.64483173,11.0066106 8.46454327,11.4933894 8.50060096,11.9801683 C8.53665865,12.4669471 8.78004808,12.9176683 9.17668269,13.2151442 L15.2614183,17.7764423 L15.2614183,23.6899038 C15.2614183,24.6274038 16.0186298,25.3846154 16.9561298,25.3846154 C17.8936298,25.3846154 18.6508413,24.6274038 18.6508413,23.6899038 L18.6508413,16.9290865 C18.6508413,16.3972356 18.3984375,15.8924279 17.9747596,15.5769231 L12.7554087,11.6736779 Z" id="Path"></path>
                <circle id="Oval" cx="19.4801683" cy="2.56009615" r="2.53305288"></circle>
            </g>
        </g>
    </g>
</svg>